[Trace]   DarkRiftServer        System Details:
                                	OS: Microsoft Windows NT 6.2.9200.0
                                	CLS Version: 4.0.30319.42000
                                	DarkRift: 2.6.0.0 - Free
[Trace]   pluginFactory         Created plugin 'HeroSyncGameManager'.
[Trace]   PluginManager         Plugin 'HeroSyncGameManager' has requested that DarkRift operates in thread safe mode.
[Trace]   DarkRiftServer        Switched into thread safe mode. Expect lower performance!
[Info]    PluginManager         Upgraded plugin HeroSyncGameManager version 0.0.7 from version 0.0.6
[Trace]   pluginFactory         Created plugin 'BichannelListener'.
[Trace]   DefaultNetworkListener Starting bichannel listener.
[Info]    DefaultNetworkListener Server mounted, listening on port 4296.
[Trace]   DefaultNetworkListener Accepted TCP connection from 127.0.0.1:51255.
[Trace]   DefaultNetworkListener Accepted UDP connection from 127.0.0.1:63727.
[Info]    ClientManager         New client [0] connected [127.0.0.1:51255|127.0.0.1:63727].
[Info]    HeroSyncGameManager   Player attempting to log in.
[Error]   Client                An plugin encountered an error whilst handling the MessageReceived event.
                                 System.ArgumentNullException: Value cannot be null.
                                 Parameter name: s
                                    at System.Text.UnicodeEncoding.GetByteCount(String s)
                                    at DarkRift.DarkRiftWriter.Write(String value, Encoding encoding)
                                    at DarkRift.DarkRiftWriter.Write(String value)
                                    at HeroSyncCommon.GameManagement.RoomInfo.Serialize(SerializeEvent e)
                                    at DarkRift.DarkRiftWriter.Write[T](T serializable)
                                    at DarkRift.DarkRiftWriter.Write[T](T[] value)
                                    at HeroSyncCommon.GameManagement.RoomSet.Serialize(SerializeEvent e)
                                    at DarkRift.DarkRiftWriter.Write(IDarkRiftSerializable serializable)
                                    at DarkRift.Message.Create(UInt16 tag, IDarkRiftSerializable obj)
                                    at HeroSyncServer.HeroSyncGameManager.SendMessage(IDarkRiftSerializable serializedObject, ServerMessageTags messageTag, IClient client)
                                    at HeroSyncServer.HeroSyncGameManager.PlayerLoggedIn(Object message, MessageReceivedEventArgs e)
                                    at DarkRift.Server.Client.<>c__DisplayClass45_0.<HandleIncomingMessage>b__0()
[Info]    ClientManager         Client [0] disconnected.
[Trace]   DefaultNetworkListener Accepted TCP connection from 127.0.0.1:51262.
[Trace]   DefaultNetworkListener Accepted UDP connection from 127.0.0.1:59192.
[Info]    ClientManager         New client [1] connected [127.0.0.1:51262|127.0.0.1:59192].
[Info]    HeroSyncGameManager   Player attempting to log in.
[Error]   Client                An plugin encountered an error whilst handling the MessageReceived event.
                                 System.ArgumentNullException: Value cannot be null.
                                 Parameter name: s
                                    at System.Text.UnicodeEncoding.GetByteCount(String s)
                                    at DarkRift.DarkRiftWriter.Write(String value, Encoding encoding)
                                    at DarkRift.DarkRiftWriter.Write(String value)
                                    at HeroSyncCommon.GameManagement.RoomInfo.Serialize(SerializeEvent e)
                                    at DarkRift.DarkRiftWriter.Write[T](T serializable)
                                    at DarkRift.DarkRiftWriter.Write[T](T[] value)
                                    at HeroSyncCommon.GameManagement.RoomSet.Serialize(SerializeEvent e)
                                    at DarkRift.DarkRiftWriter.Write(IDarkRiftSerializable serializable)
                                    at DarkRift.Message.Create(UInt16 tag, IDarkRiftSerializable obj)
                                    at HeroSyncServer.HeroSyncGameManager.SendMessage(IDarkRiftSerializable serializedObject, ServerMessageTags messageTag, IClient client)
                                    at HeroSyncServer.HeroSyncGameManager.PlayerLoggedIn(Object message, MessageReceivedEventArgs e)
                                    at DarkRift.Server.Client.<>c__DisplayClass45_0.<HandleIncomingMessage>b__0()
