[Trace]   DarkRiftServer        System Details:
                                	OS: Microsoft Windows NT 6.2.9200.0
                                	CLS Version: 4.0.30319.42000
                                	DarkRift: 2.6.0.0 - Free
[Trace]   pluginFactory         Created plugin 'HeroSyncGameManager'.
[Trace]   PluginManager         Plugin 'HeroSyncGameManager' has requested that DarkRift operates in thread safe mode.
[Trace]   DarkRiftServer        Switched into thread safe mode. Expect lower performance!
[Info]    PluginManager         Loaded plugin HeroSyncGameManager version 0.0.4
[Trace]   pluginFactory         Created plugin 'BichannelListener'.
[Trace]   DefaultNetworkListener Starting bichannel listener.
[Info]    DefaultNetworkListener Server mounted, listening on port 4296.
[Trace]   DefaultNetworkListener Accepted TCP connection from 127.0.0.1:63826.
[Trace]   DefaultNetworkListener Accepted UDP connection from 127.0.0.1:58995.
[Info]    ClientManager         New client [0] connected [127.0.0.1:63826|127.0.0.1:58995].
[Info]    HeroSyncGameManager   Writing a log
[Info]    HeroSyncGameManager   Found 15 cards in the database
[Error]   Client                An plugin encountered an error whilst handling the MessageReceived event.
                                 System.NullReferenceException: Object reference not set to an instance of an object.
                                    at HeroSyncCommon.CardData.Serialize(SerializeEvent e)
                                    at DarkRift.DarkRiftWriter.Write[T](T serializable)
                                    at HeroSyncCommon.Deck.Serialize(SerializeEvent e)
                                    at DarkRift.DarkRiftWriter.Write[T](T serializable)
                                    at HeroSyncCommon.PlayerData.Serialize(SerializeEvent e)
                                    at DarkRift.DarkRiftWriter.Write[T](T serializable)
                                    at DarkRift.Message.Create[T](UInt16 tag, T obj)
                                    at HeroSyncServer.GameRoom.StartSingle()
                                    at HeroSyncServer.GameRoom.CheckForSinglePlayer(Object sender, MessageReceivedEventArgs e)
                                    at DarkRift.Server.Client.<>c__DisplayClass45_0.<HandleIncomingMessage>b__0()
[Info]    ClientManager         Client [0] disconnected.
